{
    "HOST":"localhost",
    "PORT":"1414",
    "CHANNEL":"DEV.APP.SVRCONN",
    "QMGR":"QM1",
    "APP_USER":"app",
    "APP_PASSWORD":"P@ssw0rd",
    "QUEUE_NAME":"DEV.QUEUE.1",
    "MODEL_QUEUE_NAME":"DEV.APP.MODEL.QUEUE",
    "DYNAMIC_QUEUE_PREFIX":"APP.REPLIES.*",
    "TOPIC_NAME":"dev/",
    "CIPHER_SUITE":"TLS_RSA_WITH_AES_128_CBC_SHA256",
    "KEY_REPOSITORY": "./keys/clientkey"
}